{
    "name": "Controls",
    "maps": [
        {
            "name": "Player",
            "id": "cdb114cc-c4e2-43e8-9586-0b47680d42e3",
            "actions": [
                {
                    "name": "Next",
                    "type": "Button",
                    "id": "59600d59-b9ef-403f-8efe-d93c5777bfc2",
                    "expectedControlType": "Button",
                    "processors": "",
                    "interactions": "",
                    "initialStateCheck": false
                }
            ],
            "bindings": [
                {
                    "name": "",
                    "id": "cd987563-57b6-49f8-93dd-71a0ab1086e1",
                    "path": "<Mouse>/leftButton",
                    "interactions": "",
                    "processors": "",
                    "groups": "",
                    "action": "Next",
                    "isComposite": false,
                    "isPartOfComposite": false
                }
            ]
        }
    ],
    "controlSchemes": []
}